simulation/qsim/LogicalStep_Lab5.msim.vcd
$comment
	File created using the following command:
		vcd file LogicalStep_Lab5.msim.vcd -direction
$end
$date
	Sat Jul 15 17:29:28 2017
$end
$version
	ModelSim Version 10.4b
$end
$timescale
	1ps
$end

$scope module LogicalStep_Lab5_top_vlg_vec_tst $end
$var reg 1 ! clkin_50 $end
$var reg 4 " pb [3:0] $end
$var reg 1 # rst_n $end
$var reg 8 $ sw [7:0] $end
$var wire 1 % leds [7] $end
$var wire 1 & leds [6] $end
$var wire 1 ' leds [5] $end
$var wire 1 ( leds [4] $end
$var wire 1 ) leds [3] $end
$var wire 1 * leds [2] $end
$var wire 1 + leds [1] $end
$var wire 1 , leds [0] $end
$var wire 1 - seg7_char1 $end
$var wire 1 . seg7_char2 $end
$var wire 1 / seg7_data [6] $end
$var wire 1 0 seg7_data [5] $end
$var wire 1 1 seg7_data [4] $end
$var wire 1 2 seg7_data [3] $end
$var wire 1 3 seg7_data [2] $end
$var wire 1 4 seg7_data [1] $end
$var wire 1 5 seg7_data [0] $end

$scope module i1 $end
$var wire 1 6 gnd $end
$var wire 1 7 vcc $end
$var wire 1 8 unknown $end
$var tri1 1 9 devclrn $end
$var tri1 1 : devpor $end
$var tri1 1 ; devoe $end
$var wire 1 < pb[2]~input_o $end
$var wire 1 = pb[3]~input_o $end
$var wire 1 > sw[2]~input_o $end
$var wire 1 ? sw[3]~input_o $end
$var wire 1 @ sw[4]~input_o $end
$var wire 1 A sw[5]~input_o $end
$var wire 1 B sw[6]~input_o $end
$var wire 1 C sw[7]~input_o $end
$var wire 1 D seg7_data[6]~output_o $end
$var wire 1 E leds[0]~output_o $end
$var wire 1 F leds[1]~output_o $end
$var wire 1 G leds[2]~output_o $end
$var wire 1 H leds[3]~output_o $end
$var wire 1 I leds[4]~output_o $end
$var wire 1 J leds[5]~output_o $end
$var wire 1 K leds[6]~output_o $end
$var wire 1 L leds[7]~output_o $end
$var wire 1 M seg7_data[0]~output_o $end
$var wire 1 N seg7_data[1]~output_o $end
$var wire 1 O seg7_data[2]~output_o $end
$var wire 1 P seg7_data[3]~output_o $end
$var wire 1 Q seg7_data[4]~output_o $end
$var wire 1 R seg7_data[5]~output_o $end
$var wire 1 S seg7_char1~output_o $end
$var wire 1 T seg7_char2~output_o $end
$var wire 1 U clkin_50~input_o $end
$var wire 1 V GEN2|Add0~0_combout $end
$var wire 1 W GEN2|bin_counter[0]~29_combout $end
$var wire 1 X rst_n~input_o $end
$var wire 1 Y GEN2|Add0~1 $end
$var wire 1 Z GEN2|Add0~2_combout $end
$var wire 1 [ GEN2|bin_counter[1]~28_combout $end
$var wire 1 \ GEN2|Equal0~0_combout $end
$var wire 1 ] GEN1|Add0~1_cout $end
$var wire 1 ^ GEN1|Add0~3_cout $end
$var wire 1 _ GEN1|Add0~4_combout $end
$var wire 1 ` GEN1|bin_counter[2]~29_combout $end
$var wire 1 a GEN1|Add0~5 $end
$var wire 1 b GEN1|Add0~6_combout $end
$var wire 1 c GEN1|bin_counter~26_combout $end
$var wire 1 d GEN1|Add0~7 $end
$var wire 1 e GEN1|Add0~8_combout $end
$var wire 1 f GEN1|bin_counter~25_combout $end
$var wire 1 g GEN1|Add0~9 $end
$var wire 1 h GEN1|Add0~10_combout $end
$var wire 1 i GEN1|bin_counter~24_combout $end
$var wire 1 j GEN1|Add0~11 $end
$var wire 1 k GEN1|Add0~12_combout $end
$var wire 1 l GEN1|bin_counter[6]~28_combout $end
$var wire 1 m GEN1|Add0~13 $end
$var wire 1 n GEN1|Add0~14_combout $end
$var wire 1 o GEN1|bin_counter[7]~27_combout $end
$var wire 1 p GEN1|Add0~15 $end
$var wire 1 q GEN1|Add0~16_combout $end
$var wire 1 r GEN1|bin_counter~23_combout $end
$var wire 1 s GEN1|Add0~17 $end
$var wire 1 t GEN1|Add0~18_combout $end
$var wire 1 u GEN1|bin_counter~22_combout $end
$var wire 1 v GEN1|Add0~19 $end
$var wire 1 w GEN1|Add0~20_combout $end
$var wire 1 x GEN1|bin_counter~21_combout $end
$var wire 1 y GEN1|Add0~21 $end
$var wire 1 z GEN1|Add0~22_combout $end
$var wire 1 { GEN1|bin_counter~20_combout $end
$var wire 1 | GEN1|Add0~23 $end
$var wire 1 } GEN1|Add0~24_combout $end
$var wire 1 ~ GEN1|bin_counter~19_combout $end
$var wire 1 !! GEN1|Add0~25 $end
$var wire 1 "! GEN1|Add0~26_combout $end
$var wire 1 #! GEN1|bin_counter~18_combout $end
$var wire 1 $! GEN1|Add0~27 $end
$var wire 1 %! GEN1|Add0~28_combout $end
$var wire 1 &! GEN1|bin_counter~17_combout $end
$var wire 1 '! GEN1|Add0~29 $end
$var wire 1 (! GEN1|Add0~30_combout $end
$var wire 1 )! GEN1|bin_counter~16_combout $end
$var wire 1 *! GEN1|Add0~31 $end
$var wire 1 +! GEN1|Add0~32_combout $end
$var wire 1 ,! GEN1|bin_counter~15_combout $end
$var wire 1 -! GEN1|Add0~33 $end
$var wire 1 .! GEN1|Add0~34_combout $end
$var wire 1 /! GEN1|bin_counter~14_combout $end
$var wire 1 0! GEN1|Add0~35 $end
$var wire 1 1! GEN1|Add0~36_combout $end
$var wire 1 2! GEN1|bin_counter~13_combout $end
$var wire 1 3! GEN1|Add0~37 $end
$var wire 1 4! GEN1|Add0~38_combout $end
$var wire 1 5! GEN1|bin_counter~12_combout $end
$var wire 1 6! GEN1|Add0~39 $end
$var wire 1 7! GEN1|Add0~40_combout $end
$var wire 1 8! GEN1|bin_counter~11_combout $end
$var wire 1 9! GEN1|Add0~41 $end
$var wire 1 :! GEN1|Add0~42_combout $end
$var wire 1 ;! GEN1|bin_counter~10_combout $end
$var wire 1 <! GEN1|Add0~43 $end
$var wire 1 =! GEN1|Add0~44_combout $end
$var wire 1 >! GEN1|bin_counter~9_combout $end
$var wire 1 ?! GEN1|Add0~45 $end
$var wire 1 @! GEN1|Add0~46_combout $end
$var wire 1 A! GEN1|bin_counter~8_combout $end
$var wire 1 B! GEN1|Add0~47 $end
$var wire 1 C! GEN1|Add0~48_combout $end
$var wire 1 D! GEN1|bin_counter~7_combout $end
$var wire 1 E! GEN1|Add0~49 $end
$var wire 1 F! GEN1|Add0~50_combout $end
$var wire 1 G! GEN1|bin_counter~6_combout $end
$var wire 1 H! GEN1|Add0~51 $end
$var wire 1 I! GEN1|Add0~52_combout $end
$var wire 1 J! GEN1|bin_counter~3_combout $end
$var wire 1 K! GEN1|Add0~53 $end
$var wire 1 L! GEN1|Add0~54_combout $end
$var wire 1 M! GEN1|bin_counter~2_combout $end
$var wire 1 N! GEN1|Add0~55 $end
$var wire 1 O! GEN1|Add0~56_combout $end
$var wire 1 P! GEN1|bin_counter~1_combout $end
$var wire 1 Q! GEN1|Add0~57 $end
$var wire 1 R! GEN1|Add0~58_combout $end
$var wire 1 S! GEN1|bin_counter~0_combout $end
$var wire 1 T! GEN1|Equal0~0_combout $end
$var wire 1 U! GEN1|Add0~59 $end
$var wire 1 V! GEN1|Add0~60_combout $end
$var wire 1 W! GEN1|bin_counter~5_combout $end
$var wire 1 X! GEN1|Add0~61 $end
$var wire 1 Y! GEN1|Add0~62_combout $end
$var wire 1 Z! GEN1|bin_counter~4_combout $end
$var wire 1 [! GEN1|Equal0~1_combout $end
$var wire 1 \! GEN1|Equal0~2_combout $end
$var wire 1 ]! GEN1|Equal0~3_combout $end
$var wire 1 ^! GEN1|Equal0~4_combout $end
$var wire 1 _! GEN1|Equal0~5_combout $end
$var wire 1 `! GEN1|Equal0~6_combout $end
$var wire 1 a! GEN1|Equal0~7_combout $end
$var wire 1 b! GEN1|Equal0~8_combout $end
$var wire 1 c! GEN1|Equal0~9_combout $end
$var wire 1 d! GEN1|terminal_count~q $end
$var wire 1 e! GEN1|strobe~0_combout $end
$var wire 1 f! GEN1|strobe~q $end
$var wire 1 g! GEN1|CLKEN_GEN~0_combout $end
$var wire 1 h! GEN1|full_cycle~q $end
$var wire 1 i! GEN2|Add0~3 $end
$var wire 1 j! GEN2|Add0~4_combout $end
$var wire 1 k! GEN2|bin_counter[2]~31_combout $end
$var wire 1 l! GEN2|Add0~5 $end
$var wire 1 m! GEN2|Add0~6_combout $end
$var wire 1 n! GEN2|bin_counter~27_combout $end
$var wire 1 o! GEN2|Add0~7 $end
$var wire 1 p! GEN2|Add0~8_combout $end
$var wire 1 q! GEN2|bin_counter~26_combout $end
$var wire 1 r! GEN2|Add0~9 $end
$var wire 1 s! GEN2|Add0~10_combout $end
$var wire 1 t! GEN2|bin_counter[5]~30_combout $end
$var wire 1 u! GEN2|Add0~11 $end
$var wire 1 v! GEN2|Add0~12_combout $end
$var wire 1 w! GEN2|bin_counter~25_combout $end
$var wire 1 x! GEN2|Add0~13 $end
$var wire 1 y! GEN2|Add0~14_combout $end
$var wire 1 z! GEN2|bin_counter~24_combout $end
$var wire 1 {! GEN2|Add0~15 $end
$var wire 1 |! GEN2|Add0~16_combout $end
$var wire 1 }! GEN2|bin_counter~23_combout $end
$var wire 1 ~! GEN2|Add0~17 $end
$var wire 1 !" GEN2|Add0~18_combout $end
$var wire 1 "" GEN2|bin_counter~22_combout $end
$var wire 1 #" GEN2|Add0~19 $end
$var wire 1 $" GEN2|Add0~20_combout $end
$var wire 1 %" GEN2|bin_counter~21_combout $end
$var wire 1 &" GEN2|Add0~21 $end
$var wire 1 '" GEN2|Add0~22_combout $end
$var wire 1 (" GEN2|bin_counter~20_combout $end
$var wire 1 )" GEN2|Add0~23 $end
$var wire 1 *" GEN2|Add0~24_combout $end
$var wire 1 +" GEN2|bin_counter~19_combout $end
$var wire 1 ," GEN2|Add0~25 $end
$var wire 1 -" GEN2|Add0~26_combout $end
$var wire 1 ." GEN2|bin_counter~18_combout $end
$var wire 1 /" GEN2|Add0~27 $end
$var wire 1 0" GEN2|Add0~28_combout $end
$var wire 1 1" GEN2|bin_counter~17_combout $end
$var wire 1 2" GEN2|Add0~29 $end
$var wire 1 3" GEN2|Add0~30_combout $end
$var wire 1 4" GEN2|bin_counter~16_combout $end
$var wire 1 5" GEN2|Add0~31 $end
$var wire 1 6" GEN2|Add0~32_combout $end
$var wire 1 7" GEN2|bin_counter~15_combout $end
$var wire 1 8" GEN2|Add0~33 $end
$var wire 1 9" GEN2|Add0~34_combout $end
$var wire 1 :" GEN2|bin_counter~14_combout $end
$var wire 1 ;" GEN2|Add0~35 $end
$var wire 1 <" GEN2|Add0~36_combout $end
$var wire 1 =" GEN2|bin_counter~13_combout $end
$var wire 1 >" GEN2|Add0~37 $end
$var wire 1 ?" GEN2|Add0~38_combout $end
$var wire 1 @" GEN2|bin_counter~12_combout $end
$var wire 1 A" GEN2|Add0~39 $end
$var wire 1 B" GEN2|Add0~40_combout $end
$var wire 1 C" GEN2|bin_counter~11_combout $end
$var wire 1 D" GEN2|Add0~41 $end
$var wire 1 E" GEN2|Add0~42_combout $end
$var wire 1 F" GEN2|bin_counter~10_combout $end
$var wire 1 G" GEN2|Add0~43 $end
$var wire 1 H" GEN2|Add0~44_combout $end
$var wire 1 I" GEN2|bin_counter~9_combout $end
$var wire 1 J" GEN2|Add0~45 $end
$var wire 1 K" GEN2|Add0~46_combout $end
$var wire 1 L" GEN2|bin_counter~8_combout $end
$var wire 1 M" GEN2|Add0~47 $end
$var wire 1 N" GEN2|Add0~48_combout $end
$var wire 1 O" GEN2|bin_counter~7_combout $end
$var wire 1 P" GEN2|Add0~49 $end
$var wire 1 Q" GEN2|Add0~50_combout $end
$var wire 1 R" GEN2|bin_counter~6_combout $end
$var wire 1 S" GEN2|Add0~51 $end
$var wire 1 T" GEN2|Add0~52_combout $end
$var wire 1 U" GEN2|bin_counter~3_combout $end
$var wire 1 V" GEN2|Add0~53 $end
$var wire 1 W" GEN2|Add0~54_combout $end
$var wire 1 X" GEN2|bin_counter~2_combout $end
$var wire 1 Y" GEN2|Add0~55 $end
$var wire 1 Z" GEN2|Add0~56_combout $end
$var wire 1 [" GEN2|bin_counter~1_combout $end
$var wire 1 \" GEN2|Add0~57 $end
$var wire 1 ]" GEN2|Add0~58_combout $end
$var wire 1 ^" GEN2|bin_counter~0_combout $end
$var wire 1 _" GEN2|Equal0~1_combout $end
$var wire 1 `" GEN2|Add0~59 $end
$var wire 1 a" GEN2|Add0~60_combout $end
$var wire 1 b" GEN2|bin_counter~5_combout $end
$var wire 1 c" GEN2|Add0~61 $end
$var wire 1 d" GEN2|Add0~62_combout $end
$var wire 1 e" GEN2|bin_counter~4_combout $end
$var wire 1 f" GEN2|Equal0~2_combout $end
$var wire 1 g" GEN2|Equal0~3_combout $end
$var wire 1 h" GEN2|Equal0~4_combout $end
$var wire 1 i" GEN2|Equal0~5_combout $end
$var wire 1 j" GEN2|Equal0~6_combout $end
$var wire 1 k" GEN2|Equal0~7_combout $end
$var wire 1 l" GEN2|Equal0~8_combout $end
$var wire 1 m" GEN2|Equal0~9_combout $end
$var wire 1 n" GEN2|Equal0~10_combout $end
$var wire 1 o" GEN2|terminal_count~q $end
$var wire 1 p" GEN2|strobe~0_combout $end
$var wire 1 q" GEN2|strobe~q $end
$var wire 1 r" GEN2|CLKEN_GEN~0_combout $end
$var wire 1 s" GEN2|full_cycle~q $end
$var wire 1 t" pb[1]~input_o $end
$var wire 1 u" INST5|output1~0_combout $end
$var wire 1 v" INST5|output1~q $end
$var wire 1 w" INST5|data_output~q $end
$var wire 1 x" pb[0]~input_o $end
$var wire 1 y" INST4|output1~0_combout $end
$var wire 1 z" INST4|output1~q $end
$var wire 1 {" INST4|data_output~q $end
$var wire 1 |" INST3|next_state.H3~0_combout $end
$var wire 1 }" INST3|current_state.H3~q $end
$var wire 1 ~" INST3|next_state.H4~0_combout $end
$var wire 1 !# INST3|current_state.H4~q $end
$var wire 1 "# INST3|next_state.H5~0_combout $end
$var wire 1 ## INST3|current_state.H5~q $end
$var wire 1 $# sw[1]~input_o $end
$var wire 1 %# INST9|output1~0_combout $end
$var wire 1 &# INST9|output1~q $end
$var wire 1 '# INST9|data_output~q $end
$var wire 1 (# sw[0]~input_o $end
$var wire 1 )# INST8|output1~0_combout $end
$var wire 1 *# INST8|output1~q $end
$var wire 1 +# INST8|data_output~q $end
$var wire 1 ,# INST3|Selector2~1_combout $end
$var wire 1 -# INST3|current_state.NM~q $end
$var wire 1 .# INST3|Selector2~0_combout $end
$var wire 1 /# INST3|Selector3~0_combout $end
$var wire 1 0# INST3|current_state.RSM~q $end
$var wire 1 1# INST3|Selector0~0_combout $end
$var wire 1 2# INST3|Selector0~3_combout $end
$var wire 1 3# INST3|current_state.H6~q $end
$var wire 1 4# INST3|current_state.H7~q $end
$var wire 1 5# INST3|next_state.H8~0_combout $end
$var wire 1 6# INST3|current_state.H8~q $end
$var wire 1 7# INST3|next_state.H9~0_combout $end
$var wire 1 8# INST3|current_state.H9~q $end
$var wire 1 9# INST3|next_state.HA~0_combout $end
$var wire 1 :# INST3|current_state.HA~q $end
$var wire 1 ;# INST3|next_state.HB~0_combout $end
$var wire 1 <# INST3|current_state.HB~q $end
$var wire 1 =# INST3|next_state.HC~0_combout $end
$var wire 1 ># INST3|current_state.HC~q $end
$var wire 1 ?# INST3|WideOr6~1_combout $end
$var wire 1 @# INST6|data_output~0_combout $end
$var wire 1 A# INST6|data_output~1_combout $end
$var wire 1 B# INST6|data_output~q $end
$var wire 1 C# INST3|next_state.HD~0_combout $end
$var wire 1 D# INST3|current_state.HD~q $end
$var wire 1 E# INST3|Selector1~0_combout $end
$var wire 1 F# INST3|current_state.HE~q $end
$var wire 1 G# INST3|current_state.HF~q $end
$var wire 1 H# INST3|next_state.H0~0_combout $end
$var wire 1 I# INST3|current_state.H0~q $end
$var wire 1 J# INST3|next_state.H1~0_combout $end
$var wire 1 K# INST3|current_state.H1~q $end
$var wire 1 L# INST3|Selector0~1_combout $end
$var wire 1 M# INST3|Selector0~2_combout $end
$var wire 1 N# INST7|data_output~0_combout $end
$var wire 1 O# INST7|data_output~q $end
$var wire 1 P# INST3|next_state.H2~0_combout $end
$var wire 1 Q# INST3|current_state.H2~q $end
$var wire 1 R# INST3|WideOr8~1_combout $end
$var wire 1 S# INST3|WideOr8~0_combout $end
$var wire 1 T# INST3|WideOr6~0_combout $end
$var wire 1 U# INST3|WideOr7~0_combout $end
$var wire 1 V# INST3|WideOr7~combout $end
$var wire 1 W# INST1|clk_proc:COUNT[0]~0_combout $end
$var wire 1 X# INST1|clk_proc:COUNT[0]~q $end
$var wire 1 Y# INST1|clk_proc:COUNT[1]~1_combout $end
$var wire 1 Z# INST1|clk_proc:COUNT[1]~q $end
$var wire 1 [# INST1|clk_proc:COUNT[1]~2 $end
$var wire 1 \# INST1|clk_proc:COUNT[2]~1_combout $end
$var wire 1 ]# INST1|clk_proc:COUNT[2]~q $end
$var wire 1 ^# INST1|clk_proc:COUNT[2]~2 $end
$var wire 1 _# INST1|clk_proc:COUNT[3]~1_combout $end
$var wire 1 `# INST1|clk_proc:COUNT[3]~q $end
$var wire 1 a# INST1|clk_proc:COUNT[3]~2 $end
$var wire 1 b# INST1|clk_proc:COUNT[4]~1_combout $end
$var wire 1 c# INST1|clk_proc:COUNT[4]~q $end
$var wire 1 d# INST1|clk_proc:COUNT[4]~2 $end
$var wire 1 e# INST1|clk_proc:COUNT[5]~1_combout $end
$var wire 1 f# INST1|clk_proc:COUNT[5]~q $end
$var wire 1 g# INST1|clk_proc:COUNT[5]~2 $end
$var wire 1 h# INST1|clk_proc:COUNT[6]~1_combout $end
$var wire 1 i# INST1|clk_proc:COUNT[6]~q $end
$var wire 1 j# INST1|clk_proc:COUNT[6]~2 $end
$var wire 1 k# INST1|clk_proc:COUNT[7]~1_combout $end
$var wire 1 l# INST1|clk_proc:COUNT[7]~q $end
$var wire 1 m# INST1|clk_proc:COUNT[7]~2 $end
$var wire 1 n# INST1|clk_proc:COUNT[8]~1_combout $end
$var wire 1 o# INST1|clk_proc:COUNT[8]~q $end
$var wire 1 p# INST1|clk_proc:COUNT[8]~2 $end
$var wire 1 q# INST1|clk_proc:COUNT[9]~1_combout $end
$var wire 1 r# INST1|clk_proc:COUNT[9]~q $end
$var wire 1 s# INST1|clk_proc:COUNT[9]~2 $end
$var wire 1 t# INST1|clk_proc:COUNT[10]~1_combout $end
$var wire 1 u# INST1|clk_proc:COUNT[10]~q $end
$var wire 1 v# INST1|DOUT[0]~0_combout $end
$var wire 1 w# INST1|DOUT_TEMP[6]~2_combout $end
$var wire 1 x# INST3|WideOr9~0_combout $end
$var wire 1 y# INST3|WideOr9~combout $end
$var wire 1 z# INST3|WideOr8~combout $end
$var wire 1 {# INST3|WideOr6~combout $end
$var wire 1 |# INST1|DOUT[3]~1_combout $end
$var wire 1 }# GEN2|bin_counter [31] $end
$var wire 1 ~# GEN2|bin_counter [30] $end
$var wire 1 !$ GEN2|bin_counter [29] $end
$var wire 1 "$ GEN2|bin_counter [28] $end
$var wire 1 #$ GEN2|bin_counter [27] $end
$var wire 1 $$ GEN2|bin_counter [26] $end
$var wire 1 %$ GEN2|bin_counter [25] $end
$var wire 1 &$ GEN2|bin_counter [24] $end
$var wire 1 '$ GEN2|bin_counter [23] $end
$var wire 1 ($ GEN2|bin_counter [22] $end
$var wire 1 )$ GEN2|bin_counter [21] $end
$var wire 1 *$ GEN2|bin_counter [20] $end
$var wire 1 +$ GEN2|bin_counter [19] $end
$var wire 1 ,$ GEN2|bin_counter [18] $end
$var wire 1 -$ GEN2|bin_counter [17] $end
$var wire 1 .$ GEN2|bin_counter [16] $end
$var wire 1 /$ GEN2|bin_counter [15] $end
$var wire 1 0$ GEN2|bin_counter [14] $end
$var wire 1 1$ GEN2|bin_counter [13] $end
$var wire 1 2$ GEN2|bin_counter [12] $end
$var wire 1 3$ GEN2|bin_counter [11] $end
$var wire 1 4$ GEN2|bin_counter [10] $end
$var wire 1 5$ GEN2|bin_counter [9] $end
$var wire 1 6$ GEN2|bin_counter [8] $end
$var wire 1 7$ GEN2|bin_counter [7] $end
$var wire 1 8$ GEN2|bin_counter [6] $end
$var wire 1 9$ GEN2|bin_counter [5] $end
$var wire 1 :$ GEN2|bin_counter [4] $end
$var wire 1 ;$ GEN2|bin_counter [3] $end
$var wire 1 <$ GEN2|bin_counter [2] $end
$var wire 1 =$ GEN2|bin_counter [1] $end
$var wire 1 >$ GEN2|bin_counter [0] $end
$var wire 1 ?$ GEN1|bin_counter [31] $end
$var wire 1 @$ GEN1|bin_counter [30] $end
$var wire 1 A$ GEN1|bin_counter [29] $end
$var wire 1 B$ GEN1|bin_counter [28] $end
$var wire 1 C$ GEN1|bin_counter [27] $end
$var wire 1 D$ GEN1|bin_counter [26] $end
$var wire 1 E$ GEN1|bin_counter [25] $end
$var wire 1 F$ GEN1|bin_counter [24] $end
$var wire 1 G$ GEN1|bin_counter [23] $end
$var wire 1 H$ GEN1|bin_counter [22] $end
$var wire 1 I$ GEN1|bin_counter [21] $end
$var wire 1 J$ GEN1|bin_counter [20] $end
$var wire 1 K$ GEN1|bin_counter [19] $end
$var wire 1 L$ GEN1|bin_counter [18] $end
$var wire 1 M$ GEN1|bin_counter [17] $end
$var wire 1 N$ GEN1|bin_counter [16] $end
$var wire 1 O$ GEN1|bin_counter [15] $end
$var wire 1 P$ GEN1|bin_counter [14] $end
$var wire 1 Q$ GEN1|bin_counter [13] $end
$var wire 1 R$ GEN1|bin_counter [12] $end
$var wire 1 S$ GEN1|bin_counter [11] $end
$var wire 1 T$ GEN1|bin_counter [10] $end
$var wire 1 U$ GEN1|bin_counter [9] $end
$var wire 1 V$ GEN1|bin_counter [8] $end
$var wire 1 W$ GEN1|bin_counter [7] $end
$var wire 1 X$ GEN1|bin_counter [6] $end
$var wire 1 Y$ GEN1|bin_counter [5] $end
$var wire 1 Z$ GEN1|bin_counter [4] $end
$var wire 1 [$ GEN1|bin_counter [3] $end
$var wire 1 \$ GEN1|bin_counter [2] $end
$var wire 1 ]$ GEN1|bin_counter [1] $end
$var wire 1 ^$ GEN1|bin_counter [0] $end
$upscope $end
$upscope $end
$enddefinitions $end
#0
$dumpvars
0!
bx "
0#
bx00 $
0,
0+
0*
0)
0(
0'
0&
0%
1-
0.
05
04
03
02
01
00
0/
06
17
x8
19
1:
1;
x<
x=
x>
x?
x@
xA
xB
xC
0D
0E
0F
0G
0H
0I
0J
0K
0L
0M
0N
0O
0P
0Q
0R
1S
0T
0U
0V
1W
0X
1Y
1Z
0[
0\
1]
0^
1_
0`
1a
0b
0c
0d
0e
0f
1g
0h
0i
0j
1k
0l
1m
1n
0o
0p
0q
0r
1s
0t
0u
0v
0w
0x
1y
0z
0{
0|
0}
0~
1!!
0"!
0#!
0$!
0%!
0&!
1'!
0(!
0)!
0*!
0+!
0,!
1-!
0.!
0/!
00!
01!
02!
13!
04!
05!
06!
07!
08!
19!
0:!
0;!
0<!
0=!
0>!
1?!
0@!
0A!
0B!
0C!
0D!
1E!
0F!
0G!
0H!
0I!
0J!
1K!
0L!
0M!
0N!
0O!
0P!
1Q!
0R!
0S!
1T!
0U!
0V!
0W!
1X!
0Y!
0Z!
0[!
1\!
1]!
1^!
1_!
0`!
0a!
0b!
0c!
0d!
0e!
0f!
0g!
0h!
0i!
1j!
0k!
1l!
0m!
0n!
0o!
0p!
0q!
1r!
1s!
0t!
0u!
0v!
0w!
1x!
0y!
0z!
0{!
0|!
0}!
1~!
0!"
0""
0#"
0$"
0%"
1&"
0'"
0("
0)"
0*"
0+"
1,"
0-"
0."
0/"
00"
01"
12"
03"
04"
05"
06"
07"
18"
09"
0:"
0;"
0<"
0="
1>"
0?"
0@"
0A"
0B"
0C"
1D"
0E"
0F"
0G"
0H"
0I"
1J"
0K"
0L"
0M"
0N"
0O"
1P"
0Q"
0R"
0S"
0T"
0U"
1V"
0W"
0X"
0Y"
0Z"
0["
1\"
0]"
0^"
1_"
0`"
0a"
0b"
1c"
0d"
0e"
0f"
1g"
1h"
1i"
1j"
1k"
0l"
0m"
0n"
0o"
0p"
0q"
0r"
0s"
xt"
xu"
0v"
0w"
xx"
xy"
0z"
0{"
0|"
0}"
0~"
0!#
0"#
0##
0$#
1%#
0&#
0'#
0(#
1)#
0*#
0+#
0,#
0-#
1.#
0/#
00#
01#
02#
03#
04#
05#
06#
07#
08#
09#
0:#
0;#
0<#
0=#
0>#
1?#
0@#
0A#
0B#
0C#
0D#
0E#
0F#
0G#
1H#
0I#
1J#
0K#
0L#
0M#
0N#
0O#
0P#
0Q#
0R#
1S#
1T#
1U#
1V#
1W#
0X#
0Y#
0Z#
0[#
0\#
0]#
1^#
0_#
0`#
0a#
0b#
0c#
1d#
0e#
0f#
0g#
0h#
0i#
1j#
0k#
0l#
0m#
0n#
0o#
1p#
0q#
0r#
0s#
0t#
0u#
0v#
0w#
0x#
0y#
0z#
0{#
0|#
0>$
0=$
0<$
0;$
0:$
09$
08$
07$
06$
05$
04$
03$
02$
01$
00$
0/$
0.$
0-$
0,$
0+$
0*$
0)$
0($
0'$
0&$
0%$
0$$
0#$
0"$
0!$
0~#
0}#
z^$
z]$
0\$
0[$
0Z$
0Y$
0X$
0W$
0V$
0U$
0T$
0S$
0R$
0Q$
0P$
0O$
0N$
0M$
0L$
0K$
0J$
0I$
0H$
0G$
0F$
0E$
0D$
0C$
0B$
0A$
0@$
0?$
$end
#10000
1!
1U
1X#
1Y#
0W#
#20000
0!
0U
#30000
1!
1U
1Z#
0X#
1W#
#40000
0!
0U
#50000
1!
1U
1X#
1[#
0Y#
0W#
1\#
#60000
0!
0U
#70000
1!
1U
1]#
0Z#
0X#
0^#
0[#
0\#
1W#
1^#
1_#
1\#
0_#
#80000
0!
0U
#90000
1!
1U
1X#
1Y#
0W#
#100000
0!
0U
#110000
1!
1U
1Z#
0X#
1W#
#120000
0!
0U
#130000
1!
1U
1X#
1[#
0Y#
0W#
0^#
0\#
1_#
#140000
0!
0U
#150000
1!
1U
1`#
0]#
0Z#
0X#
1a#
1^#
0[#
0_#
1\#
1W#
0a#
1b#
1_#
0\#
0b#
#160000
0!
0U
#170000
1!
1U
1X#
1Y#
0W#
#180000
0!
0U
#190000
1!
1U
1Z#
0X#
1W#
#200000
0!
0U
#210000
1!
1U
1X#
1[#
0Y#
0W#
1\#
#220000
0!
0U
#230000
1!
1U
1]#
0Z#
0X#
0^#
0[#
0\#
1W#
1a#
1^#
0_#
1\#
0a#
1b#
1_#
0b#
#240000
0!
0U
#250000
1!
1U
1X#
1Y#
0W#
#260000
0!
0U
#270000
1!
1U
1Z#
0X#
1W#
#280000
0!
0U
#290000
1!
1U
1X#
1[#
0Y#
0W#
0^#
0\#
1a#
0_#
1b#
#300000
0!
0U
#310000
1!
1U
1c#
0`#
0]#
0Z#
0X#
0d#
0a#
1^#
0[#
0b#
1_#
1\#
1W#
1d#
1e#
1b#
0_#
0\#
0e#
#320000
0!
0U
#330000
1!
1U
1X#
1Y#
0W#
#340000
0!
0U
#350000
1!
1U
1Z#
0X#
1W#
#360000
0!
0U
#370000
1!
1U
1X#
1[#
0Y#
0W#
1\#
#380000
0!
0U
#390000
1!
1U
1]#
0Z#
0X#
0^#
0[#
0\#
1W#
1^#
1_#
1\#
0_#
#400000
0!
0U
#410000
1!
1U
1X#
1Y#
0W#
#420000
0!
0U
#430000
1!
1U
1Z#
0X#
1W#
#440000
0!
0U
#450000
1!
1U
1X#
1[#
0Y#
0W#
0^#
0\#
1_#
#460000
0!
0U
#470000
1!
1U
1`#
0]#
0Z#
0X#
1a#
1^#
0[#
0_#
1\#
1W#
0d#
0a#
0b#
1_#
0\#
1d#
1e#
1b#
0e#
#480000
0!
0U
#490000
1!
1U
1X#
1Y#
0W#
#500000
0!
0U
#510000
1!
1U
1Z#
0X#
1W#
#520000
0!
0U
#530000
1!
1U
1X#
1[#
0Y#
0W#
1\#
#540000
0!
0U
#550000
1!
1U
1]#
0Z#
0X#
0^#
0[#
0\#
1W#
1a#
1^#
0_#
1\#
0d#
0a#
0b#
1_#
1d#
1e#
1b#
0e#
#560000
0!
0U
#570000
1!
1U
1X#
1Y#
0W#
#580000
0!
0U
#590000
1!
1U
1Z#
0X#
1W#
#600000
0!
0U
#610000
1!
1U
1X#
1[#
0Y#
0W#
0^#
0\#
1a#
0_#
0d#
0b#
1e#
#620000
0!
0U
#630000
1!
1U
1f#
0c#
0`#
0]#
0Z#
0X#
1g#
1d#
0a#
1^#
0[#
0e#
1b#
1_#
1\#
1W#
0g#
1h#
1e#
0b#
0_#
0\#
0h#
#640000
1#
0!
1X
0U
#650000
1!
1U
1X#
1>$
1*#
1&#
xz"
xv"
0]
0Y
1V
1Y#
0W#
0Z
0W
1[
#660000
0!
0U
#670000
1!
1U
1Z#
0X#
1+#
1'#
x{"
xw"
1=$
0>$
1^
1i!
1Z
1]
1Y
0V
1W#
xN#
0_
0j!
0^
0i!
0Z
0[
1W
1_
1j!
1`
1k!
1[
0`
0k!
#680000
0!
0U
#690000
1!
1U
1X#
1>$
1[#
0]
1\
0Y
1V
0Y#
0W#
1^
1f"
1[!
1i!
1Z
1\#
0W
0_
0j!
0[
1`
1k!
#700000
0!
0U
#710000
1!
1U
1]#
0Z#
0X#
1<$
1\$
0=$
0>$
0^#
0[#
0l!
1j!
1a!
0a
1_
0^
0\
0i!
0Z
1]
1Y
0V
0\#
1W#
1^#
1o!
1m!
1d
1b
1a
0_
0f"
0[!
1l!
0j!
1Z
1_#
1\#
0k!
0`
1[
1W
0r!
1p!
0g
1e
0d
0b
0o!
0m!
0_#
1n!
1c
1`
1k!
0[
0s!
1j
1h
1g
0e
1r!
0p!
1q!
1f
0c
0n!
0k
0j
0h
1s!
1t!
1i
0f
0q!
1k
1l
0i
0t!
0l
#720000
0!
0U
